Análise do desempenho no SAT (1994-1995)
…
De inicio para desvendar a base e entender nossos dados, vamos carregar para dentro do R, trazer descritivas sobre as váriaveis e plotar usando o GGally:ggpairs a tabela de correlação.

Código

library(tidyverse)
library(knitr)
library(GGally)

#Importando os dados

dados <- read.csv("data/SAT.csv") |> as_tibble()

dados

# A tibble: 50 × 5
   total salario percentual despesa razao
   <int>   <int>      <int>   <dbl> <dbl>
 1  1029       1          8    4.40  17.2
 2   934       3         47    8.96  17.6
 3   944       2         27    4.78  19.3
 4  1005       1          6    4.46  17.1
 5   902       3         45    4.99  24  
 6   980       2         29    5.44  18.4
 7   908       3         81    8.82  14.4
 8   897       3         68    7.03  16.6
 9   889       2         48    5.72  19.1
10   854       2         65    5.19  16.3
# ℹ 40 more rows
…
